%YAML 1.1
%TAG !u! tag:unity3d.com,2011:
--- !u!29 &1
OcclusionCullingSettings:
  m_ObjectHideFlags: 0
  serializedVersion: 2
  m_OcclusionBakeSettings:
    smallestOccluder: 5
    smallestHole: 0.25
    backfaceThreshold: 100
  m_SceneGUID: 00000000000000000000000000000000
  m_OcclusionCullingData: {fileID: 0}
--- !u!104 &2
RenderSettings:
  m_ObjectHideFlags: 0
  serializedVersion: 9
  m_Fog: 0
  m_FogColor: {r: 0.5, g: 0.5, b: 0.5, a: 1}
  m_FogMode: 3
  m_FogDensity: 0.01
  m_LinearFogStart: 0
  m_LinearFogEnd: 300
  m_AmbientSkyColor: {r: 0.212, g: 0.227, b: 0.259, a: 1}
  m_AmbientEquatorColor: {r: 0.114, g: 0.125, b: 0.133, a: 1}
  m_AmbientGroundColor: {r: 0.047, g: 0.043, b: 0.035, a: 1}
  m_AmbientIntensity: 1
  m_AmbientMode: 3
  m_SubtractiveShadowColor: {r: 0.42, g: 0.478, b: 0.627, a: 1}
  m_SkyboxMaterial: {fileID: 0}
  m_HaloStrength: 0.5
  m_FlareStrength: 1
  m_FlareFadeSpeed: 3
  m_HaloTexture: {fileID: 0}
  m_SpotCookie: {fileID: 10001, guid: 0000000000000000e000000000000000, type: 0}
  m_DefaultReflectionMode: 0
  m_DefaultReflectionResolution: 128
  m_ReflectionBounces: 1
  m_ReflectionIntensity: 1
  m_CustomReflection: {fileID: 0}
  m_Sun: {fileID: 0}
  m_IndirectSpecularColor: {r: 0, g: 0, b: 0, a: 1}
  m_UseRadianceAmbientProbe: 0
--- !u!157 &3
LightmapSettings:
  m_ObjectHideFlags: 0
  serializedVersion: 11
  m_GIWorkflowMode: 1
  m_GISettings:
    serializedVersion: 2
    m_BounceScale: 1
    m_IndirectOutputScale: 1
    m_AlbedoBoost: 1
    m_EnvironmentLightingMode: 0
    m_EnableBakedLightmaps: 0
    m_EnableRealtimeLightmaps: 0
  m_LightmapEditorSettings:
    serializedVersion: 12
    m_Resolution: 2
    m_BakeResolution: 40
    m_AtlasSize: 1024
    m_AO: 0
    m_AOMaxDistance: 1
    m_CompAOExponent: 1
    m_CompAOExponentDirect: 0
    m_ExtractAmbientOcclusion: 0
    m_Padding: 2
    m_LightmapParameters: {fileID: 0}
    m_LightmapsBakeMode: 1
    m_TextureCompression: 1
    m_FinalGather: 0
    m_FinalGatherFiltering: 1
    m_FinalGatherRayCount: 256
    m_ReflectionCompression: 2
    m_MixedBakeMode: 2
    m_BakeBackend: 0
    m_PVRSampling: 1
    m_PVRDirectSampleCount: 32
    m_PVRSampleCount: 500
    m_PVRBounces: 2
    m_PVREnvironmentSampleCount: 500
    m_PVREnvironmentReferencePointCount: 2048
    m_PVRFilteringMode: 2
    m_PVRDenoiserTypeDirect: 0
    m_PVRDenoiserTypeIndirect: 0
    m_PVRDenoiserTypeAO: 0
    m_PVRFilterTypeDirect: 0
    m_PVRFilterTypeIndirect: 0
    m_PVRFilterTypeAO: 0
    m_PVREnvironmentMIS: 0
    m_PVRCulling: 1
    m_PVRFilteringGaussRadiusDirect: 1
    m_PVRFilteringGaussRadiusIndirect: 5
    m_PVRFilteringGaussRadiusAO: 2
    m_PVRFilteringAtrousPositionSigmaDirect: 0.5
    m_PVRFilteringAtrousPositionSigmaIndirect: 2
    m_PVRFilteringAtrousPositionSigmaAO: 1
    m_ExportTrainingData: 0
    m_TrainingDataDestination: TrainingData
  m_LightingDataAsset: {fileID: 0}
  m_UseShadowmask: 1
--- !u!196 &4
NavMeshSettings:
  serializedVersion: 2
  m_ObjectHideFlags: 0
  m_BuildSettings:
    serializedVersion: 2
    agentTypeID: 0
    agentRadius: 0.5
    agentHeight: 2
    agentSlope: 45
    agentClimb: 0.4
    ledgeDropHeight: 0
    maxJumpAcrossDistance: 0
    minRegionArea: 2
    manualCellSize: 0
    cellSize: 0.16666667
    manualTileSize: 0
    tileSize: 256
    accuratePlacement: 0
    debug:
      m_Flags: 0
  m_NavMeshData: {fileID: 0}
--- !u!1001 &55043048
PrefabInstance:
  m_ObjectHideFlags: 0
  serializedVersion: 2
  m_Modification:
    m_TransformParent: {fileID: 1953326116}
    m_Modifications:
    - target: {fileID: 2187030340011280790, guid: 1baaaeb4384370143a7900eb41518ddd,
        type: 3}
      propertyPath: m_Name
      value: Pista1
      objectReference: {fileID: 0}
    - target: {fileID: 7806330916587113199, guid: 1baaaeb4384370143a7900eb41518ddd,
        type: 3}
      propertyPath: m_LocalPosition.x
      value: 0.086727
      objectReference: {fileID: 0}
    - target: {fileID: 7806330916587113199, guid: 1baaaeb4384370143a7900eb41518ddd,
        type: 3}
      propertyPath: m_LocalPosition.y
      value: -1.1100065
      objectReference: {fileID: 0}
    - target: {fileID: 7806330916587113199, guid: 1baaaeb4384370143a7900eb41518ddd,
        type: 3}
      propertyPath: m_LocalPosition.z
      value: -0.1328125
      objectReference: {fileID: 0}
    - target: {fileID: 7806330916587113199, guid: 1baaaeb4384370143a7900eb41518ddd,
        type: 3}
      propertyPath: m_LocalRotation.x
      value: 0
      objectReference: {fileID: 0}
    - target: {fileID: 7806330916587113199, guid: 1baaaeb4384370143a7900eb41518ddd,
        type: 3}
      propertyPath: m_LocalRotation.y
      value: 0
      objectReference: {fileID: 0}
    - target: {fileID: 7806330916587113199, guid: 1baaaeb4384370143a7900eb41518ddd,
        type: 3}
      propertyPath: m_LocalRotation.z
      value: 0
      objectReference: {fileID: 0}
    - target: {fileID: 7806330916587113199, guid: 1baaaeb4384370143a7900eb41518ddd,
        type: 3}
      propertyPath: m_LocalRotation.w
      value: 1
      objectReference: {fileID: 0}
    - target: {fileID: 7806330916587113199, guid: 1baaaeb4384370143a7900eb41518ddd,
        type: 3}
      propertyPath: m_RootOrder
      value: 1
      objectReference: {fileID: 0}
    - target: {fileID: 7806330916587113199, guid: 1baaaeb4384370143a7900eb41518ddd,
        type: 3}
      propertyPath: m_LocalEulerAnglesHint.x
      value: 0
      objectReference: {fileID: 0}
    - target: {fileID: 7806330916587113199, guid: 1baaaeb4384370143a7900eb41518ddd,
        type: 3}
      propertyPath: m_LocalEulerAnglesHint.y
      value: 0
      objectReference: {fileID: 0}
    - target: {fileID: 7806330916587113199, guid: 1baaaeb4384370143a7900eb41518ddd,
        type: 3}
      propertyPath: m_LocalEulerAnglesHint.z
      value: 0
      objectReference: {fileID: 0}
    - target: {fileID: 2885859190892498541, guid: 1baaaeb4384370143a7900eb41518ddd,
        type: 3}
      propertyPath: m_LocalPosition.y
      value: -18.24
      objectReference: {fileID: 0}
    - target: {fileID: 9147866592818350976, guid: 1baaaeb4384370143a7900eb41518ddd,
        type: 3}
      propertyPath: m_TagString
      value: Suelo
      objectReference: {fileID: 0}
    m_RemovedComponents: []
  m_SourcePrefab: {fileID: 100100000, guid: 1baaaeb4384370143a7900eb41518ddd, type: 3}
--- !u!1 &679690107
GameObject:
  m_ObjectHideFlags: 0
  m_CorrespondingSourceObject: {fileID: 0}
  m_PrefabInstance: {fileID: 0}
  m_PrefabAsset: {fileID: 0}
  serializedVersion: 6
  m_Component:
  - component: {fileID: 679690108}
  - component: {fileID: 679690111}
  - component: {fileID: 679690110}
  - component: {fileID: 679690109}
  m_Layer: 5
  m_Name: Canvas
  m_TagString: Untagged
  m_Icon: {fileID: 0}
  m_NavMeshLayer: 0
  m_StaticEditorFlags: 0
  m_IsActive: 1
--- !u!224 &679690108
RectTransform:
  m_ObjectHideFlags: 0
  m_CorrespondingSourceObject: {fileID: 0}
  m_PrefabInstance: {fileID: 0}
  m_PrefabAsset: {fileID: 0}
  m_GameObject: {fileID: 679690107}
  m_LocalRotation: {x: 0, y: 0, z: 0, w: 1}
  m_LocalPosition: {x: 0, y: 0, z: 0}
  m_LocalScale: {x: 0, y: 0, z: 0}
  m_Children:
  - {fileID: 2095126447}
  m_Father: {fileID: 1953326116}
  m_RootOrder: 2
  m_LocalEulerAnglesHint: {x: 0, y: 0, z: 0}
  m_AnchorMin: {x: 0, y: 0}
  m_AnchorMax: {x: 0, y: 0}
  m_AnchoredPosition: {x: 0, y: 0}
  m_SizeDelta: {x: 0, y: 0}
  m_Pivot: {x: 0, y: 0}
--- !u!114 &679690109
MonoBehaviour:
  m_ObjectHideFlags: 0
  m_CorrespondingSourceObject: {fileID: 0}
  m_PrefabInstance: {fileID: 0}
  m_PrefabAsset: {fileID: 0}
  m_GameObject: {fileID: 679690107}
  m_Enabled: 1
  m_EditorHideFlags: 0
  m_Script: {fileID: 11500000, guid: dc42784cf147c0c48a680349fa168899, type: 3}
  m_Name: 
  m_EditorClassIdentifier: 
  m_IgnoreReversedGraphics: 1
  m_BlockingObjects: 0
  m_BlockingMask:
    serializedVersion: 2
    m_Bits: 4294967295
--- !u!114 &679690110
MonoBehaviour:
  m_ObjectHideFlags: 0
  m_CorrespondingSourceObject: {fileID: 0}
  m_PrefabInstance: {fileID: 0}
  m_PrefabAsset: {fileID: 0}
  m_GameObject: {fileID: 679690107}
  m_Enabled: 1
  m_EditorHideFlags: 0
  m_Script: {fileID: 11500000, guid: 0cd44c1031e13a943bb63640046fad76, type: 3}
  m_Name: 
  m_EditorClassIdentifier: 
  m_UiScaleMode: 0
  m_ReferencePixelsPerUnit: 100
  m_ScaleFactor: 1
  m_ReferenceResolution: {x: 800, y: 600}
  m_ScreenMatchMode: 0
  m_MatchWidthOrHeight: 0
  m_PhysicalUnit: 3
  m_FallbackScreenDPI: 96
  m_DefaultSpriteDPI: 96
  m_DynamicPixelsPerUnit: 1
--- !u!223 &679690111
Canvas:
  m_ObjectHideFlags: 0
  m_CorrespondingSourceObject: {fileID: 0}
  m_PrefabInstance: {fileID: 0}
  m_PrefabAsset: {fileID: 0}
  m_GameObject: {fileID: 679690107}
  m_Enabled: 1
  serializedVersion: 3
  m_RenderMode: 0
  m_Camera: {fileID: 0}
  m_PlaneDistance: 100
  m_PixelPerfect: 0
  m_ReceivesEvents: 1
  m_OverrideSorting: 0
  m_OverridePixelPerfect: 0
  m_SortingBucketNormalizedSize: 0
  m_AdditionalShaderChannelsFlag: 0
  m_SortingLayerID: 0
  m_SortingOrder: 0
  m_TargetDisplay: 0
--- !u!4 &952442832 stripped
Transform:
  m_CorrespondingSourceObject: {fileID: 5993741876027971310, guid: b5e9bc444b8b95a4b962b8547cf4eea3,
    type: 3}
  m_PrefabInstance: {fileID: 5993741875707064229}
  m_PrefabAsset: {fileID: 0}
--- !u!1 &1055462723
GameObject:
  m_ObjectHideFlags: 0
  m_CorrespondingSourceObject: {fileID: 0}
  m_PrefabInstance: {fileID: 0}
  m_PrefabAsset: {fileID: 0}
  serializedVersion: 6
  m_Component:
  - component: {fileID: 1055462726}
  - component: {fileID: 1055462725}
  - component: {fileID: 1055462724}
  m_Layer: 0
  m_Name: Camera
  m_TagString: Untagged
  m_Icon: {fileID: 0}
  m_NavMeshLayer: 0
  m_StaticEditorFlags: 0
  m_IsActive: 1
--- !u!81 &1055462724
AudioListener:
  m_ObjectHideFlags: 0
  m_CorrespondingSourceObject: {fileID: 0}
  m_PrefabInstance: {fileID: 0}
  m_PrefabAsset: {fileID: 0}
  m_GameObject: {fileID: 1055462723}
  m_Enabled: 1
--- !u!20 &1055462725
Camera:
  m_ObjectHideFlags: 0
  m_CorrespondingSourceObject: {fileID: 0}
  m_PrefabInstance: {fileID: 0}
  m_PrefabAsset: {fileID: 0}
  m_GameObject: {fileID: 1055462723}
  m_Enabled: 1
  serializedVersion: 2
  m_ClearFlags: 1
  m_BackGroundColor: {r: 0.19215687, g: 0.3019608, b: 0.4745098, a: 0}
  m_projectionMatrixMode: 1
  m_GateFitMode: 2
  m_FOVAxisMode: 0
  m_SensorSize: {x: 36, y: 24}
  m_LensShift: {x: 0, y: 0}
  m_FocalLength: 50
  m_NormalizedViewPortRect:
    serializedVersion: 2
    x: 0
    y: 0
    width: 1
    height: 1
  near clip plane: 0.3
  far clip plane: 1000
  field of view: 60
  orthographic: 1
  orthographic size: 9.572002
  m_Depth: 0
  m_CullingMask:
    serializedVersion: 2
    m_Bits: 4294967295
  m_RenderingPath: -1
  m_TargetTexture: {fileID: 0}
  m_TargetDisplay: 0
  m_TargetEye: 3
  m_HDR: 1
  m_AllowMSAA: 1
  m_AllowDynamicResolution: 0
  m_ForceIntoRT: 0
  m_OcclusionCulling: 1
  m_StereoConvergence: 10
  m_StereoSeparation: 0.022
--- !u!4 &1055462726
Transform:
  m_ObjectHideFlags: 0
  m_CorrespondingSourceObject: {fileID: 0}
  m_PrefabInstance: {fileID: 0}
  m_PrefabAsset: {fileID: 0}
  m_GameObject: {fileID: 1055462723}
  m_LocalRotation: {x: 0, y: 0, z: 0, w: 1}
  m_LocalPosition: {x: -1.91, y: -10.93, z: -10}
  m_LocalScale: {x: 4.383032, y: 1.5375, z: 1}
  m_Children: []
  m_Father: {fileID: 0}
  m_RootOrder: 1
  m_LocalEulerAnglesHint: {x: 0, y: 0, z: 0}
--- !u!4 &1769086853 stripped
Transform:
  m_CorrespondingSourceObject: {fileID: 7806330916587113199, guid: 1baaaeb4384370143a7900eb41518ddd,
    type: 3}
  m_PrefabInstance: {fileID: 55043048}
  m_PrefabAsset: {fileID: 0}
--- !u!1 &1953326115
GameObject:
  m_ObjectHideFlags: 0
  m_CorrespondingSourceObject: {fileID: 0}
  m_PrefabInstance: {fileID: 0}
  m_PrefabAsset: {fileID: 0}
  serializedVersion: 6
  m_Component:
  - component: {fileID: 1953326116}
  - component: {fileID: 1953326117}
  m_Layer: 0
  m_Name: PistaIni
  m_TagString: PistaIni
  m_Icon: {fileID: 0}
  m_NavMeshLayer: 0
  m_StaticEditorFlags: 0
  m_IsActive: 1
--- !u!4 &1953326116
Transform:
  m_ObjectHideFlags: 0
  m_CorrespondingSourceObject: {fileID: 0}
  m_PrefabInstance: {fileID: 0}
  m_PrefabAsset: {fileID: 0}
  m_GameObject: {fileID: 1953326115}
  m_LocalRotation: {x: 0, y: 0, z: 0, w: 1}
  m_LocalPosition: {x: -0.9590906, y: -1.0732586, z: -0.1442736}
  m_LocalScale: {x: 1, y: 1, z: 1}
  m_Children:
  - {fileID: 952442832}
  - {fileID: 1769086853}
  - {fileID: 679690108}
  m_Father: {fileID: 0}
  m_RootOrder: 0
  m_LocalEulerAnglesHint: {x: 0, y: 0, z: 0}
--- !u!114 &1953326117
MonoBehaviour:
  m_ObjectHideFlags: 0
  m_CorrespondingSourceObject: {fileID: 0}
  m_PrefabInstance: {fileID: 0}
  m_PrefabAsset: {fileID: 0}
  m_GameObject: {fileID: 1953326115}
  m_Enabled: 1
  m_EditorHideFlags: 0
  m_Script: {fileID: 11500000, guid: 4d627b409acb8684f92ff8444387067d, type: 3}
  m_Name: 
  m_EditorClassIdentifier: 
  Pista:
  - {fileID: 1093640167991733364, guid: 77f2c1a65ea0de24a838b18de4fd7f1c, type: 3}
  - {fileID: 5929567096594370075, guid: 550689c6ce9a0c14d98667606df8ad1e, type: 3}
  - {fileID: 1751275683373311990, guid: 4b28d2b0cc6ddfc4782d14a4cf528f60, type: 3}
  - {fileID: 2572716295382475429, guid: 0e450c2e4dd14ae4b8e73498f7f13eb9, type: 3}
  Player:
  - {fileID: 5993741876027971299, guid: b5e9bc444b8b95a4b962b8547cf4eea3, type: 3}
  cam: {fileID: 1055462725}
  contador: 0
--- !u!1 &2095126446
GameObject:
  m_ObjectHideFlags: 0
  m_CorrespondingSourceObject: {fileID: 0}
  m_PrefabInstance: {fileID: 0}
  m_PrefabAsset: {fileID: 0}
  serializedVersion: 6
  m_Component:
  - component: {fileID: 2095126447}
  - component: {fileID: 2095126449}
  - component: {fileID: 2095126448}
  m_Layer: 5
  m_Name: Text
  m_TagString: text
  m_Icon: {fileID: 0}
  m_NavMeshLayer: 0
  m_StaticEditorFlags: 0
  m_IsActive: 1
--- !u!224 &2095126447
RectTransform:
  m_ObjectHideFlags: 0
  m_CorrespondingSourceObject: {fileID: 0}
  m_PrefabInstance: {fileID: 0}
  m_PrefabAsset: {fileID: 0}
  m_GameObject: {fileID: 2095126446}
  m_LocalRotation: {x: 0, y: 0, z: 0, w: 1}
  m_LocalPosition: {x: 0, y: 0, z: 0}
  m_LocalScale: {x: 1, y: 1, z: 1}
  m_Children: []
  m_Father: {fileID: 679690108}
  m_RootOrder: 0
  m_LocalEulerAnglesHint: {x: 0, y: 0, z: 0}
  m_AnchorMin: {x: 0.5, y: 0.5}
  m_AnchorMax: {x: 0.5, y: 0.5}
  m_AnchoredPosition: {x: -311.5, y: 167.2}
  m_SizeDelta: {x: 237.1, y: 35.5}
  m_Pivot: {x: 0.5, y: 0.5}
--- !u!114 &2095126448
MonoBehaviour:
  m_ObjectHideFlags: 0
  m_CorrespondingSourceObject: {fileID: 0}
  m_PrefabInstance: {fileID: 0}
  m_PrefabAsset: {fileID: 0}
  m_GameObject: {fileID: 2095126446}
  m_Enabled: 1
  m_EditorHideFlags: 0
  m_Script: {fileID: 11500000, guid: 5f7201a12d95ffc409449d95f23cf332, type: 3}
  m_Name: 
  m_EditorClassIdentifier: 
  m_Material: {fileID: 0}
  m_Color: {r: 1, g: 0.9584457, b: 0, a: 1}
  m_RaycastTarget: 1
  m_OnCullStateChanged:
    m_PersistentCalls:
      m_Calls: []
  m_FontData:
    m_Font: {fileID: 10102, guid: 0000000000000000e000000000000000, type: 0}
    m_FontSize: 25
    m_FontStyle: 0
    m_BestFit: 0
    m_MinSize: 0
    m_MaxSize: 300
    m_Alignment: 0
    m_AlignByGeometry: 0
    m_RichText: 1
    m_HorizontalOverflow: 0
    m_VerticalOverflow: 0
    m_LineSpacing: 1
  m_Text: "Puntuaci\xF3n: "
--- !u!222 &2095126449
CanvasRenderer:
  m_ObjectHideFlags: 0
  m_CorrespondingSourceObject: {fileID: 0}
  m_PrefabInstance: {fileID: 0}
  m_PrefabAsset: {fileID: 0}
  m_GameObject: {fileID: 2095126446}
  m_CullTransparentMesh: 0
--- !u!1001 &5993741875707064229
PrefabInstance:
  m_ObjectHideFlags: 0
  serializedVersion: 2
  m_Modification:
    m_TransformParent: {fileID: 1953326116}
    m_Modifications:
    - target: {fileID: 5993741876027971299, guid: b5e9bc444b8b95a4b962b8547cf4eea3,
        type: 3}
      propertyPath: m_Name
      value: Player
      objectReference: {fileID: 0}
    - target: {fileID: 5993741876027971310, guid: b5e9bc444b8b95a4b962b8547cf4eea3,
        type: 3}
      propertyPath: m_LocalPosition.x
      value: -14.62
      objectReference: {fileID: 0}
    - target: {fileID: 5993741876027971310, guid: b5e9bc444b8b95a4b962b8547cf4eea3,
        type: 3}
      propertyPath: m_LocalPosition.y
      value: -16.82
      objectReference: {fileID: 0}
    - target: {fileID: 5993741876027971310, guid: b5e9bc444b8b95a4b962b8547cf4eea3,
        type: 3}
      propertyPath: m_LocalPosition.z
      value: 0.1442736
      objectReference: {fileID: 0}
    - target: {fileID: 5993741876027971310, guid: b5e9bc444b8b95a4b962b8547cf4eea3,
        type: 3}
      propertyPath: m_LocalRotation.x
      value: -0
      objectReference: {fileID: 0}
    - target: {fileID: 5993741876027971310, guid: b5e9bc444b8b95a4b962b8547cf4eea3,
        type: 3}
      propertyPath: m_LocalRotation.y
      value: -0
      objectReference: {fileID: 0}
    - target: {fileID: 5993741876027971310, guid: b5e9bc444b8b95a4b962b8547cf4eea3,
        type: 3}
      propertyPath: m_LocalRotation.z
      value: -0
      objectReference: {fileID: 0}
    - target: {fileID: 5993741876027971310, guid: b5e9bc444b8b95a4b962b8547cf4eea3,
        type: 3}
      propertyPath: m_LocalRotation.w
      value: 1
      objectReference: {fileID: 0}
    - target: {fileID: 5993741876027971310, guid: b5e9bc444b8b95a4b962b8547cf4eea3,
        type: 3}
      propertyPath: m_RootOrder
      value: 0
      objectReference: {fileID: 0}
    - target: {fileID: 5993741876027971310, guid: b5e9bc444b8b95a4b962b8547cf4eea3,
        type: 3}
      propertyPath: m_LocalEulerAnglesHint.x
      value: 0
      objectReference: {fileID: 0}
    - target: {fileID: 5993741876027971310, guid: b5e9bc444b8b95a4b962b8547cf4eea3,
        type: 3}
      propertyPath: m_LocalEulerAnglesHint.y
      value: 0
      objectReference: {fileID: 0}
    - target: {fileID: 5993741876027971310, guid: b5e9bc444b8b95a4b962b8547cf4eea3,
        type: 3}
      propertyPath: m_LocalEulerAnglesHint.z
      value: 0
      objectReference: {fileID: 0}
    - target: {fileID: 5993741876027971309, guid: b5e9bc444b8b95a4b962b8547cf4eea3,
        type: 3}
      propertyPath: m_Mass
      value: 1
      objectReference: {fileID: 0}
    - target: {fileID: 5993741876027971309, guid: b5e9bc444b8b95a4b962b8547cf4eea3,
        type: 3}
      propertyPath: m_GravityScale
      value: 9.8
      objectReference: {fileID: 0}
    - target: {fileID: 5993741876027971298, guid: b5e9bc444b8b95a4b962b8547cf4eea3,
        type: 3}
      propertyPath: murillo.Array.size
      value: 1
      objectReference: {fileID: 0}
    - target: {fileID: 5993741876027971298, guid: b5e9bc444b8b95a4b962b8547cf4eea3,
        type: 3}
      propertyPath: cam
      value: 
      objectReference: {fileID: 1055462725}
    - target: {fileID: 5993741876027971298, guid: b5e9bc444b8b95a4b962b8547cf4eea3,
        type: 3}
      propertyPath: murillo.Array.data[0]
      value: 
      objectReference: {fileID: 5983446721231425065, guid: 5ce4a9d95a301fd4db4efd396df3735c,
        type: 3}
    - target: {fileID: 5993741876027971298, guid: b5e9bc444b8b95a4b962b8547cf4eea3,
        type: 3}
      propertyPath: salt
      value: 2500
      objectReference: {fileID: 0}
    - target: {fileID: 5993741876027971298, guid: b5e9bc444b8b95a4b962b8547cf4eea3,
        type: 3}
      propertyPath: aire
      value: 20
      objectReference: {fileID: 0}
    - target: {fileID: 5993741876027971298, guid: b5e9bc444b8b95a4b962b8547cf4eea3,
        type: 3}
      propertyPath: score
      value: 
      objectReference: {fileID: 2095126448}
    m_RemovedComponents: []
  m_SourcePrefab: {fileID: 100100000, guid: b5e9bc444b8b95a4b962b8547cf4eea3, type: 3}
